{
    "AS_Button_a5878988cdf14c0f8cf655b6ced8d8ad": {
        "id": "AS_Button_a5878988cdf14c0f8cf655b6ced8d8ad",
        "type": "ACTION_SEQUENCE",
        "name": "actGoToFrm1",
        "params": [{
            "datatype": "collection",
            "name": "eventobject"
        }],
        "contextObj": {
            "name": "frmHome",
            "type": "forms",
            "platform": null,
            "KUID": "58566a496a51449cb79142d2e826ed0a"
        },
        "language": "js",
        "actions": [{
            "id": "NAVIGATE_TO_FORM___3c5d26c7ccd64dfca3a3af877d546e49",
            "type": "NAVIGATE_TO_FORM",
            "formId": "frm1",
            "formKUID": "7875a393645b4051b926eaf0606ce570",
            "mappings": {},
            "mappingsOrder": [],
            "parentId": "",
            "callbackType": null,
            "enableMappingEditor": true
        }]
    }
}