{
    "AS_Label_ec635ee97888476fafc40c89614da664": {
        "id": "AS_Label_ec635ee97888476fafc40c89614da664",
        "type": "ACTION_SEQUENCE",
        "name": "actGoToFrm4",
        "params": [{
            "datatype": "collection",
            "name": "eventobject"
        }, {
            "datatype": "string",
            "name": "x"
        }, {
            "datatype": "string",
            "name": "y"
        }],
        "contextObj": {
            "name": "frm3",
            "type": "forms",
            "platform": null,
            "KUID": "978e421501464b81ab7bab74168d2cd6"
        },
        "language": "js",
        "actions": [{
            "id": "NAVIGATE_TO_FORM___c2a8cfdafab14393a0fc3a08f8a91edb",
            "type": "NAVIGATE_TO_FORM",
            "formId": "frm4",
            "formKUID": "f767600adfdb4e76a02b1e750ccf193a",
            "mappings": {},
            "mappingsOrder": [],
            "parentId": "",
            "callbackType": null,
            "enableMappingEditor": true
        }]
    }
}