{
    "AS_Button_aceafa87248c4996ac3bc02c0172c58d": {
        "id": "AS_Button_aceafa87248c4996ac3bc02c0172c58d",
        "type": "ACTION_SEQUENCE",
        "params": [{
            "datatype": "collection",
            "name": "eventobject"
        }],
        "contextObj": {
            "name": "frmLogout",
            "type": "forms",
            "platform": "",
            "KUID": "d6c29d3c1ed7483ea6883f7d3bf516c0"
        },
        "language": "js",
        "actions": [{
            "id": "NAVIGATE_TO_FORM___29c08b464ec9417b90e7e1ddd8c8ca96",
            "type": "NAVIGATE_TO_FORM",
            "formId": "frmLogin",
            "formKUID": "f27dad4cfa8f4cb3a7b553f5bbadc5e6",
            "mappings": {},
            "mappingsOrder": [],
            "parentId": "",
            "callbackType": null,
            "enableMappingEditor": true
        }]
    }
}